<svg width="12" height="12" version="1.1" viewBox="0 0 3.175 3.175" xmlns="http://www.w3.org/2000/svg">
 <path d="m1.1906 1.2579v1.1896q0 0.03014-0.01809 0.05024-0.01808 0.01808-0.04823 0.01808h-0.13263q-0.03014 0-0.04823-0.01808-0.01809-0.0201-0.01809-0.05024v-1.1896q0-0.03014 0.01809-0.04823 0.01808-0.0201 0.04823-0.0201h0.13263q0.03014 0 0.04823 0.0201 0.01809 0.01808 0.01809 0.04823zm0.53051 0v1.1896q0 0.03014-0.0201 0.05024-0.01808 0.01808-0.04823 0.01808h-0.13062q-0.03014 0-0.05024-0.01808-0.01808-0.0201-0.01808-0.05024v-1.1896q0-0.03014 0.01808-0.04823 0.02009-0.0201 0.05024-0.0201h0.13062q0.03014 0 0.04823 0.0201 0.0201 0.01808 0.0201 0.04823zm0.5285 0v1.1896q0 0.03014-0.01808 0.05024-0.01808 0.01808-0.04823 0.01808h-0.13263q-0.02814 0-0.04823-0.01808-0.01808-0.0201-0.01808-0.05024v-1.1896q0-0.03014 0.01808-0.04823 0.0201-0.0201 0.04823-0.0201h0.13263q0.03014 0 0.04823 0.0201 0.01808 0.01808 0.01808 0.04823zm0.26525 1.4951v-1.9593h-1.8528v1.9593q0 0.04622 0.01407 0.08641 0.01406 0.03818 0.02813 0.05627 0.01608 0.01608 0.0221 0.01608h1.7221q6e-3 0 0.0221-0.01608 0.01608-0.01808 0.03014-0.05627 0.01407-0.04019 0.01407-0.08641zm-1.3906-2.2245h0.92638l-0.09847-0.24114q-0.01005-0.0201-0.03617-0.02412h-0.6551q-0.0221 4e-3 -0.03416 0.02412zm1.9191 0.06631v0.13263q0 0.02813-0.01808 0.04823-0.01808 0.01808-0.04622 0.01808h-0.19894v1.9593q0 0.17282-0.09847 0.29741-0.09847 0.12459-0.2331 0.12459h-1.7221q-0.13664 0-0.23511-0.12057-0.09646-0.12057-0.09646-0.29138v-1.9693h-0.19693q-0.02814 0-0.04823-0.01808-0.01808-0.0201-0.01808-0.04823v-0.13263q0-0.02813 0.01808-0.04622 0.02009-0.0201 0.04823-0.0201h0.63902l0.14469-0.34361q0.03215-0.07636 0.11253-0.13062 0.08038-0.05425 0.16277-0.05425h0.66112q0.08239 0 0.16277 0.05425t0.11253 0.13062l0.14468 0.34362h0.64103q0.02814 0 0.04622 0.0201 0.01808 0.01808 0.01808 0.04622z" stroke-width=".10289"/>
</svg>
